{
  "data": [
    {
      "id": "1",
      "name": "AvonRomance",
      "description": "Avon Romance Catalog",
      "filter": {
        "imprints": null,
        "excludedimprints": null,
        "bisacs": [
          "FIC027260",
          "FIC049060",
          "FIC027270",
          "FIC027080",
          "FIC027020",
          "FIC027010",
          "FIC027030",
          "FIC027190",
          "FIC027050",
          "FIC027140",
          "FIC027150",
          "FIC027070",
          "FIC027160",
          "FIC027200",
          "FIC027170",
          "FIC027180",
          "FIC027210",
          "FIC027220",
          "FIC027230",
          "FIC027240",
          "FIC027120",
          "FIC027250",
          "FIC027130",
          "FIC027110",
          "FIC027090",
          "FIC027100",
          "FIC005000",
          "FIC005010",
          "FIC005020",
          "FIC005030",
          "FIC005040",
          "FIC005050",
          "FIC005060",
          "FIC027000",
          "FIC027260",
          "FIC049060",
          "FIC027270",
          "FIC027080",
          "FIC027020",
          "FIC027010",
          "FIC027030",
          "FIC027050",
          "FIC027140",
          "FIC027150",
          "FIC027070",
          "FIC027160",
          "FIC027280",
          "FIC027200",
          "FIC027170",
          "FIC027180",
          "FIC027290",
          "FIC027300",
          "FIC027190",
          "FIC027210",
          "FIC027220",
          "FIC027230",
          "FIC027240",
          "FIC027120",
          "FIC027310",
          "FIC027320",
          "FIC027250",
          "FIC027130",
          "FIC027330",
          "FIC027110",
          "FIC027090",
          "FIC027100"
        ],
        "excludedbisacs": null,
        "websitesalable": true,
        "isbns": null,
        "excludedisbns": null,
        "format": null,
        "excludedformat": null,
        "formatcode": null,
        "excludedformatcode": null,
        "localeditorialsystemformat": null,
        "excludedlocaleditorialsystemformat": null,
        "recordowner": [
          "HCUS"
        ],
        "excludedrecordowner": null,
        "assetfinalized": null
      }
    },
    {
      "id": "a8de76a5-42ab-4006-accf-040f69466caf",
      "name": "TestFromPostMan",
      "description": "Testing from postman",
      "filter": {
        "imprints": [
          "string"
        ],
        "excludedimprints": null,
        "bisacs": [
          "string"
        ],
        "excludedbisacs": null,
        "websitesalable": true,
        "isbns": [
          "string"
        ],
        "excludedisbns": null,
        "format": [
          "string"
        ],
        "excludedformat": null,
        "formatcode": null,
        "excludedformatcode": null,
        "localeditorialsystemformat": null,
        "excludedlocaleditorialsystemformat": null,
        "recordowner": null,
        "excludedrecordowner": null,
        "assetfinalized": null
      }
    },
    {
      "id": "77cebdbd-8703-402f-85b1-73f15c62c363",
      "name": "TestFromPostMan",
      "description": "Testing from postman",
      "filter": {
        "imprints": [
          "string"
        ],
        "excludedimprints": null,
        "bisacs": [
          "string"
        ],
        "excludedbisacs": null,
        "websitesalable": true,
        "isbns": [
          "string"
        ],
        "excludedisbns": null,
        "format": [
          "string"
        ],
        "excludedformat": null,
        "formatcode": null,
        "excludedformatcode": null,
        "localeditorialsystemformat": null,
        "excludedlocaleditorialsystemformat": null,
        "recordowner": null,
        "excludedrecordowner": null,
        "assetfinalized": null
      }
    },
    {
      "id": "7f70f5cd-1bdd-462a-9f5d-2fbca8038734",
      "name": "TestFromPostMan",
      "description": "Testing from postman",
      "filter": {
        "imprints": [
          "string"
        ],
        "excludedimprints": null,
        "bisacs": [
          "string"
        ],
        "excludedbisacs": null,
        "websitesalable": true,
        "isbns": [
          "string"
        ],
        "excludedisbns": null,
        "format": [
          "string"
        ],
        "excludedformat": null,
        "formatcode": null,
        "excludedformatcode": null,
        "localeditorialsystemformat": null,
        "excludedlocaleditorialsystemformat": null,
        "recordowner": null,
        "excludedrecordowner": null,
        "assetfinalized": null
      }
    },
    {
      "id": "a8aae4f1-6dbf-4a4e-8002-b2f92de6f00f",
      "name": "TestFromPostMan1",
      "description": "Testing from postman",
      "filter": {
        "imprints": [
          "string"
        ],
        "excludedimprints": null,
        "bisacs": [
          "string"
        ],
        "excludedbisacs": null,
        "websitesalable": true,
        "isbns": [
          "string"
        ],
        "excludedisbns": null,
        "format": [
          "string"
        ],
        "excludedformat": null,
        "formatcode": null,
        "excludedformatcode": null,
        "localeditorialsystemformat": null,
        "excludedlocaleditorialsystemformat": null,
        "recordowner": null,
        "excludedrecordowner": null,
        "assetfinalized": null
      }
    },
    {
      "id": "282c307b-007e-4655-9550-d7aa4d2f3a95",
      "name": "GalleyTitles",
      "description": null,
      "filter": {
        "imprints": null,
        "excludedimprints": null,
        "bisacs": null,
        "excludedbisacs": null,
        "websitesalable": null,
        "isbns": [
          "9780007494682",
          "9780008167202",
          "9780008167233",
          "9780008168261",
          "9780008175603",
          "9780008175627",
          "9780008184797",
          "9780008199715",
          "9780008201036",
          "9780008207755",
          "9780008227333",
          "9780008228743",
          "9780008228798",
          "9780008228804",
          "9780061732997",
          "9780061957802",
          "9780061999147",
          "9780062020468",
          "9780062049230",
          "9780062076403",
          "9780062083517",
          "9780062095688",
          "9780062105714",
          "9780062113399",
          "9780062129383",
          "9780062136213",
          "9780062194268",
          "9780062207654",
          "9780062208156",
          "9780062220356",
          "9780062224378",
          "9780062225559",
          "9780062233097",
          "9780062234728",
          "9780062245120",
          "9780062249241",
          "9780062250780",
          "9780062259684",
          "9780062265395",
          "9780062271631",
          "9780062273611",
          "9780062276483",
          "9780062276490",
          "9780062279804",
          "9780062280558",
          "9780062284099",
          "9780062286659",
          "9780062287908",
          "9780062289070",
          "9780062289254",
          "9780062290427",
          "9780062297631",
          "9780062297716",
          "9780062304797",
          "9780062307972",
          "9780062309419",
          "9780062311153",
          "9780062315502",
          "9780062316271",
          "9780062317001",
          "9780062319227",
          "9780062319814",
          "9780062320438",
          "9780062322777",
          "9780062326171",
          "9780062329158",
          "9780062329752",
          "9780062329981",
          "9780062330031",
          "9780062332424",
          "9780062333162",
          "9780062334381",
          "9780062337252",
          "9780062339331",
          "9780062343079",
          "9780062344380",
          "9780062346094",
          "9780062346285",
          "9780062346629",
          "9780062347145",
          "9780062347176",
          "9780062349040",
          "9780062349408",
          "9780062349774",
          "9780062354525",
          "9780062355959",
          "9780062356260",
          "9780062359926",
          "9780062360090",
          "9780062362599",
          "9780062362780",
          "9780062363121",
          "9780062363190",
          "9780062363596",
          "9780062364081",
          "9780062364685",
          "9780062364807",
          "9780062367631",
          "9780062367792",
          "9780062368201",
          "9780062368744",
          "9780062369581",
          "9780062369680",
          "9780062371874",
          "9780062375230",
          "9780062377210",
          "9780062377234",
          "9780062378743",
          "9780062378774",
          "9780062378897",
          "9780062379290",
          "9780062379429",
          "9780062379436",
          "9780062379481",
          "9780062380074",
          "9780062381682",
          "9780062382153",
          "9780062382481",
          "9780062383273",
          "9780062383334",
          "9780062385352",
          "9780062385499",
          "9780062385888",
          "9780062385987",
          "9780062386007",
          "9780062386212",
          "9780062388179",
          "9780062388704",
          "9780062388957",
          "9780062388988",
          "9780062389190",
          "9780062389459",
          "9780062389510",
          "9780062389572",
          "9780062389855",
          "9780062390851",
          "9780062391506",
          "9780062391575",
          "9780062391643",
          "9780062391902",
          "9780062392275",
          "9780062394132",
          "9780062394408",
          "9780062394620",
          "9780062395078",
          "9780062396167",
          "9780062396860",
          "9780062397690",
          "9780062397836",
          "9780062399373",
          "9780062400765",
          "9780062402189",
          "9780062403735",
          "9780062404985",
          "9780062405029",
          "9780062405159",
          "9780062405173",
          "9780062405197",
          "9780062405517",
          "9780062407283",
          "9780062407306",
          "9780062407474",
          "9780062409164",
          "9780062409201",
          "9780062409294",
          "9780062409492",
          "9780062409959",
          "9780062410283",
          "9780062410313",
          "9780062411303",
          "9780062411358",
          "9780062412317",
          "9780062412454",
          "9780062412553",
          "9780062412584",
          "9780062412652",
          "9780062412843",
          "9780062413345",
          "9780062413352",
          "9780062413567",
          "9780062413628",
          "9780062413673",
          "9780062414373",
          "9780062414915",
          "9780062414984",
          "9780062415370",
          "9780062415646",
          "9780062415691",
          "9780062416049",
          "9780062416124",
          "9780062418104",
          "9780062418173",
          "9780062419095",
          "9780062419569",
          "9780062419774",
          "9780062420435",
          "9780062422040",
          "9780062422118",
          "9780062422156",
          "9780062422910",
          "9780062423412",
          "9780062424303",
          "9780062424839",
          "9780062424969",
          "9780062425485",
          "9780062426765",
          "9780062426970",
          "9780062427021",
          "9780062427137",
          "9780062427199",
          "9780062427458",
          "9780062428165",
          "9780062428424",
          "9780062428752",
          "9780062428790",
          "9780062429025",
          "9780062429117",
          "9780062429155",
          "9780062429209",
          "9780062429223",
          "9780062429308",
          "9780062429490",
          "9780062429650",
          "9780062429834",
          "9780062430212",
          "9780062430458",
          "9780062430489",
          "9780062431783",
          "9780062431851",
          "9780062431899",
          "9780062431905",
          "9780062433312",
          "9780062433756",
          "9780062433862",
          "9780062433923",
          "9780062434661",
          "9780062434791",
          "9780062434852",
          "9780062434876",
          "9780062434937",
          "9780062435569",
          "9780062435613",
          "9780062435842",
          "9780062436313",
          "9780062436542",
          "9780062436603",
          "9780062436689",
          "9780062437112",
          "9780062437501",
          "9780062437662",
          "9780062438225",
          "9780062438454",
          "9780062438546",
          "9780062438690",
          "9780062439079",
          "9780062439345",
          "9780062439697",
          "9780062439727",
          "9780062439789",
          "9780062439802",
          "9780062440075",
          "9780062440136",
          "9780062440181",
          "9780062440457",
          "9780062440556",
          "9780062440860",
          "9780062441706",
          "9780062442246",
          "9780062442666",
          "9780062443120",
          "9780062443274",
          "9780062444226",
          "9780062444332",
          "9780062444981",
          "9780062445100",
          "9780062445339",
          "9780062446893",
          "9780062447265",
          "9780062447906",
          "9780062448040",
          "9780062448118",
          "9780062448460",
          "9780062448668",
          "9780062448767",
          "9780062448859",
          "9780062448910",
          "9780062448934",
          "9780062450326",
          "9780062451699",
          "9780062451781",
          "9780062451941",
          "9780062452986",
          "9780062455413",
          "9780062455604",
          "9780062455932",
          "9780062456151",
          "9780062456380",
          "9780062456557",
          "9780062456830",
          "9780062456854",
          "9780062456984",
          "9780062457226",
          "9780062457332",
          "9780062457462",
          "9780062457516",
          "9780062457578",
          "9780062457714",
          "9780062457899",
          "9780062458308",
          "9780062458322",
          "9780062458636",
          "9780062458667",
          "9780062458773",
          "9780062458797",
          "9780062458827",
          "9780062458971",
          "9780062459008",
          "9780062459107",
          "9780062459374",
          "9780062460011",
          "9780062460226",
          "9780062461346",
          "9780062463692",
          "9780062464316",
          "9780062464361",
          "9780062464392",
          "9780062465566",
          "9780062465580",
          "9780062465627",
          "9780062465641",
          "9780062467256",
          "9780062467270",
          "9780062467300",
          "9780062468215",
          "9780062468611",
          "9780062469038",
          "9780062469106",
          "9780062469137",
          "9780062469687",
          "9780062469779",
          "9780062469830",
          "9780062469991",
          "9780062470072",
          "9780062470805",
          "9780062471789",
          "9780062471840",
          "9780062472724",
          "9780062472984",
          "9780062473356",
          "9780062473486",
          "9780062473530",
          "9780062473615",
          "9780062473622",
          "9780062474070",
          "9780062474100",
          "9780062474148",
          "9780062475268",
          "9780062475299",
          "9780062475343",
          "9780062475367",
          "9780062475442",
          "9780062475466",
          "9780062475480",
          "9780062476111",
          "9780062476340",
          "9780062476661",
          "9780062476722",
          "9780062476760",
          "9780062476777",
          "9780062477156",
          "9780062478955",
          "9780062484154",
          "9780062484178",
          "9780062484253",
          "9780062484383",
          "9780062486264",
          "9780062486448",
          "9780062488022",
          "9780062490223",
          "9780062490476",
          "9780062490759",
          "9780062491794",
          "9780062491985",
          "9780062492180",
          "9780062492227",
          "9780062493033",
          "9780062495600",
          "9780062496720",
          "9780062496768",
          "9780062496812",
          "9780062496843",
          "9780062497772",
          "9780062497840",
          "9780062498434",
          "9780062499721",
          "9780062499745",
          "9780062499844",
          "9780062499875",
          "9780062499912",
          "9780062499950",
          "9780062560292",
          "9780062560681",
          "9780062560704",
          "9780062562067",
          "9780062562623",
          "9780062562661",
          "9780062563668",
          "9780062563699",
          "9780062563811",
          "9780062564504",
          "9780062564580",
          "9780062565099",
          "9780062565907",
          "9780062566362",
          "9780062566423",
          "9780062566454",
          "9780062566652",
          "9780062566737",
          "9780062566805",
          "9780062567383",
          "9780062567734",
          "9780062568496",
          "9780062568984",
          "9780062568991",
          "9780062569028",
          "9780062569035",
          "9780062569219",
          "9780062569318",
          "9780062569400",
          "9780062571298",
          "9780062571977",
          "9780062572028",
          "9780062572530",
          "9780062572684",
          "9780062574046",
          "9780062640932",
          "9780062641175",
          "9780062641311",
          "9780062641649",
          "9780062641786",
          "9780062641830",
          "9780062642929",
          "9780062642936",
          "9780062642943",
          "9780062643018",
          "9780062643049",
          "9780062643261",
          "9780062644077",
          "9780062645128",
          "9780062645227",
          "9780062651259",
          "9780062652416",
          "9780062653437",
          "9780062653956",
          "9780062654199",
          "9780062654618",
          "9780062655707",
          "9780062655806",
          "9780062656179",
          "9780062656230",
          "9780062656285",
          "9780062656582",
          "9780062656841",
          "9780062657060",
          "9780062657442",
          "9780062657732",
          "9780062657862",
          "9780062658807",
          "9780062659705",
          "9780062660053",
          "9780062660084",
          "9780062660749",
          "9780062660794",
          "9780062661098",
          "9780062661159",
          "9780062661173",
          "9780062661333",
          "9780062661340",
          "9780062661883",
          "9780062661968",
          "9780062662972",
          "9780062663078",
          "9780062663481",
          "9780062663702",
          "9780062664327",
          "9780062664419",
          "9780062664570",
          "9780062666376",
          "9780062667946",
          "9780062668165",
          "9780062668844",
          "9780062669421",
          "9780062669582",
          "9780062674494",
          "9780062674876",
          "9780062676665",
          "9780062677921",
          "9780062681263",
          "9780373788545",
          "9780373789252",
          "9780373789269",
          "9780373789283",
          "9780373789320",
          "9780373789412",
          "9780373789665",
          "9780373789672",
          "9780373789894",
          "9780373789900",
          "9780373789931",
          "9780373790005",
          "9780373799282",
          "9780373799329",
          "9780373799336",
          "9780373799381",
          "9780373799398",
          "9780373799473",
          "9780373799480",
          "9780373801879",
          "9780373801909",
          "9780373801923",
          "9780373801947",
          "9780373802760",
          "9780373803217",
          "9780373803996",
          "9780373804108",
          "9780373804115",
          "9780373804122",
          "9780732276959",
          "9780732298807",
          "9780778318200",
          "9780778319443",
          "9780778319528",
          "9780778319658",
          "9780778319672",
          "9780778319702",
          "9780778319733",
          "9780778319764",
          "9780778319771",
          "9780778319818",
          "9780778319832",
          "9780778319870",
          "9780778319917",
          "9780778319955",
          "9780778319986",
          "9780778319993",
          "9780778320005",
          "9780778326809",
          "9780778326939",
          "9780778328551",
          "9780778329916",
          "9780778330011",
          "9780778330035",
          "9780778330158",
          "9780778330165",
          "9780778330318",
          "9780778330400",
          "9780778330462",
          "9780778330707",
          "9780778330721",
          "9780778330943",
          "9780778330950",
          "9780778330967",
          "9781460750360",
          "9781460751664",
          "9781460753392",
          "9789351777007",
          "9780062414373"
        ],
        "excludedisbns": null,
        "format": null,
        "excludedformat": null,
        "formatcode": null,
        "excludedformatcode": null,
        "localeditorialsystemformat": null,
        "excludedlocaleditorialsystemformat": null,
        "recordowner": null,
        "excludedrecordowner": null,
        "assetfinalized": null
      }
    }
  ]
}